…
1.  What was the most common profession for males?
2.  Waht was the most common profession for females?
3.  How do these professions measure up when viewed from the education level?
4.  Which is the least educated profession?
5.  Which is the most educated profession?
6.  Is there a relationship between family size and Education Level?
7.  Is there any diﬀerence between genders as far as education level is concerned?
8.  Does being born a slave have any bearing on the education level?

``` r
census_glm %>% group_by(Male.Occupation) %>% count() %>% arrange(desc(n))
```

    ## # A tibble: 1,426 x 2
    ## # Groups:   Male.Occupation [1,426]
    ##    Male.Occupation     n
    ##    <fct>           <int>
    ##  1 porter             93
    ##  2 waiter             72
    ##  3 laborer            70
    ##  4 seaman             46
    ##  5 hod carrier        38
    ##  6 barber             36
    ##  7 waiter $10m        31
    ##  8 various            28
    ##  9 Laborer $5w        27
    ## 10 Rag & Bone         25
    ## # … with 1,416 more rows

``` r
census_glm %>% group_by(Female.Occupation) %>% count() %>% arrange(desc(n))
```

    ## # A tibble: 796 x 2
    ## # Groups:   Female.Occupation [796]
    ##    Female.Occupation     n
    ##    <fct>             <int>
    ##  1 washer              392
    ##  2 Washing & Ironing   302
    ##  3 days work           192
    ##  4 Washing             116
    ##  5 dom. duties         114
    ##  6 House Work           62
    ##  7 2 washers            49
    ##  8 Days Work            35
    ##  9 sempstress           32
    ## 10 dress maker          31
    ## # … with 786 more rows
…
